100,4,SOB0478_2,succ_subgoal,1501019349582
100,4,SOB0478_8,succ_subgoal,1501019350377
100,4,SOB0478_5,succ_subgoal,1501019350596
100,4,SOB0478_6,succ_subgoal,1501019350720
100,4,SOB0478_3,succ_subgoal,1501019350767
100,4,SOB0478_9,succ_subgoal,1501019352312
100,4,SOB0478_7,succ_subgoal,1501019352733
100,4,SOB0478_4,succ_subgoal,1501019353294
100,4,SOB0478_10,succ_subgoal,1501019353357
100,4,SOB0478_1,succ_subgoal,1501019353435
100,4,SOB0478_10,succ_goal,1501019357179
100,4,SOB0478_6,succ_goal,1501019357179
100,4,SOB0478_3,succ_goal,1501019357210
100,4,SOB0478_7,succ_goal,1501019357210
100,4,SOB0478_4,succ_goal,1501019357226
100,4,SOB0478_9,succ_goal,1501019357226
100,4,SOB0478_2,succ_goal,1501019357241
100,4,SOB0478_8,succ_goal,1501019357257
100,4,SOB0478_5,succ_goal,1501019357257
100,4,SOB0478_1,succ_goal,1501019357257
