10,8,SOB0491_6,succ_subgoal,1501540276590
10,8,SOB0491_4,succ_subgoal,1501540276824
10,8,SOB0491_8,succ_subgoal,1501540277027
10,8,SOB0491_2,succ_subgoal,1501540277136
10,8,SOB0491_5,succ_subgoal,1501540277433
10,8,SOB0491_9,succ_subgoal,1501540278712
10,8,SOB0491_1,succ_subgoal,1501540279523
10,8,SOB0491_7,succ_subgoal,1501540279789
10,8,SOB0491_10,succ_subgoal,1501540280210
10,8,SOB0491_3,succ_subgoal,1501540281161
10,8,SOB0491_9,succ_goal,1501540281349
10,8,SOB0491_5,succ_goal,1501540281364
10,8,SOB0491_1,succ_goal,1501540281380
10,8,SOB0491_3,succ_goal,1501540281380
10,8,SOB0491_6,succ_goal,1501540281395
10,8,SOB0491_2,succ_goal,1501540281395
10,8,SOB0491_8,succ_goal,1501540281395
10,8,SOB0491_10,succ_goal,1501540281411
10,8,SOB0491_4,succ_goal,1501540281427
10,8,SOB0491_7,succ_goal,1501540281427
