50,2,SOB0485_2,succ_subgoal,1501537251314
50,2,SOB0485_3,succ_subgoal,1501537252764
50,2,SOB0485_6,succ_subgoal,1501537253669
50,2,SOB0485_4,succ_subgoal,1501537254449
50,2,SOB0485_7,succ_subgoal,1501537254543
50,2,SOB0485_1,succ_subgoal,1501537255276
50,2,SOB0485_10,succ_subgoal,1501537255775
50,2,SOB0485_9,succ_subgoal,1501537255993
50,2,SOB0485_5,succ_subgoal,1501537256071
50,2,SOB0485_8,succ_subgoal,1501537256461
50,2,SOB0485_4,succ_goal,1501537257616
50,2,SOB0485_6,succ_goal,1501537257616
50,2,SOB0485_10,succ_goal,1501537257631
50,2,SOB0485_9,succ_goal,1501537257631
50,2,SOB0485_8,succ_goal,1501537257662
50,2,SOB0485_2,succ_goal,1501537257662
50,2,SOB0485_1,succ_goal,1501537257678
50,2,SOB0485_3,succ_goal,1501537257678
50,2,SOB0485_5,succ_goal,1501537257709
50,2,SOB0485_7,succ_goal,1501537257709
