50,6,SOB0477_3,succ_subgoal,1501537785355
50,6,SOB0477_1,succ_subgoal,1501537787008
50,6,SOB0477_2,succ_subgoal,1501537787882
50,6,SOB0477_9,succ_subgoal,1501537788459
50,6,SOB0477_5,succ_subgoal,1501537788600
50,6,SOB0477_10,succ_subgoal,1501537789130
50,6,SOB0477_6,succ_subgoal,1501537789255
50,6,SOB0477_7,succ_subgoal,1501537789473
50,6,SOB0477_8,succ_subgoal,1501537789629
50,6,SOB0477_4,succ_subgoal,1501537789770
50,6,SOB0477_8,succ_goal,1501537790285
50,6,SOB0477_3,succ_goal,1501537790285
50,6,SOB0477_2,succ_goal,1501537790285
50,6,SOB0477_1,succ_goal,1501537790300
50,6,SOB0477_9,succ_goal,1501537790316
50,6,SOB0477_4,succ_goal,1501537790316
50,6,SOB0477_10,succ_goal,1501537790331
50,6,SOB0477_5,succ_goal,1501537790347
50,6,SOB0477_7,succ_goal,1501537790347
50,6,SOB0477_6,succ_goal,1501537790347
