Tracking student-ad-p05.student.otago.ac.nz [10.66.25.12:123].
Collecting 1 samples.
The current time is 1/08/2017 10:53:40 a.m..
10:53:40 d:+00.0000000s o:+00.0049381s  [                           *                           ]
Starting router...
... ready.
container0000000266__agent_agent_1, succ_subgoal, 1501541634295
container0000000266__agent_agent_1, succ_goal, 1501541634544
