Tracking student-ad-p05.student.otago.ac.nz [10.66.25.12:123].
Collecting 1 samples.
The current time is 1/08/2017 10:42:06 a.m..
10:42:06 d:+00.0000000s o:+00.0054384s  [                           *                           ]
Starting router...
... ready.
container0000000257__agent_agent_1, succ_subgoal, 1501540936845
container0000000257__agent_agent_1, succ_goal, 1501540937188
